{
    "id": "tasks",
    "name": "Tasks",
    "description": "Simple taskmanager for your spaces.",
    "keywords": ["task", "todo"],
    "version": "1.3.0",
    "humhub": {
        "minVersion": "1.3.8"
    },
    "screenshots": ["assets/screen1.jpg", "assets/screen2.jpg"]
}